\begin{thebibliography}{4}
\providecommand{\natexlab}[1]{#1}
\providecommand{\url}[1]{\texttt{#1}}
\providecommand{\urlprefix}{}

\bibitem[{BigDataEurope(2016)}]{bde-d5.2}
BigDataEurope: D5.2: Domain-specific big data integrator instances.
\newblock Tech. rep., Public Deliverable (Jun 2016),
  \urlprefix\url{https://www.big-data-europe.eu/results}

\bibitem[{Charalambidis et~al.(2015)Charalambidis, Troumpoukis, and
  Konstantopoulos}]{charalambidis-etal:2015}
Charalambidis, A., Troumpoukis, A., Konstantopoulos, S.: Semagrow: Optimizing
  federated {SPARQL} queries.
\newblock In: Proc. 11th Intl Conf. on Semantic
  Systems {(SEMANTiCS 2015)}, Vienna, Austria (Sep 2015)

\bibitem[{Tandy et~al.(2015)Tandy, Herman, and Kellogg}]{w3c:csvw-rdf}
Tandy, J., Herman, I., Kellogg, G.: Generating {RDF} from tabular data on the
  {W}eb.
\newblock {W3C} Recommendation, 17 December 2015 (Dec 2015),
  \urlprefix\url{https://www.w3.org/TR/csv2rdf}

\bibitem[{Tennison et~al.(2015)Tennison, Kellogg, and
  Herman}]{w3c:csvw-datamodel}
Tennison, J., Kellogg, G., Herman, I.: Model for tabular data and metadata on
  the {W}eb.
\newblock {W3C} Recommendation, 17 September 2015 (Dec 2015),
  \urlprefix\url{https://www.w3.org/TR/tabular-data-model}

\end{thebibliography}
